…
Raw data is loaded with the functions `read_dilutions()`,
`read_raw_experiment_data()`, and `read_raw_reference_data()`. The first
function will create a regular data frame. Tast two, will create a
list-column tibble containing a row per lab, experimental run and
dataset, stored in the `raw_data` column. These tibbles can be obtained
by providing the corresponding path and file name pattern to each
function or by using `targets::tar_load()` after running the pipeline:

``` r
targets::tar_load(data.experiments.raw)
data.experiments.raw
```

    ## # A tibble: 170 × 5
    ##    location  sheet                           raw_data            exper…¹ exper…²
    ##    <chr>     <chr>                           <list>              <chr>   <chr>  
    ##  1 Amsterdam Fluorescence Plate Reader       <tibble [28 × 11]>  202111… 202111…
    ##  2 Amsterdam OD Plate Reader                 <tibble [28 × 11]>  202111… 202111…
    ##  3 Amsterdam OD 730 nm Spectrophotometer     <tibble [8 × 10]>   202111… 202111…
    ##  4 Amsterdam Chlorophyll 665 nm Spectrophoto <tibble [8 × 6]>    202111… 202111…
    ##  5 Amsterdam Spectrum Spectrophotometer      <tibble [351 × 21]> 202111… 202111…
    ##  6 Amsterdam Fluorescence Plate Reader       <tibble [28 × 11]>  202111… 202111…
    ##  7 Amsterdam OD Plate Reader                 <tibble [28 × 11]>  202111… 202111…
    ##  8 Amsterdam OD 730 nm Spectrophotometer     <tibble [8 × 10]>   202111… 202111…
    ##  9 Amsterdam Chlorophyll 665 nm Spectrophoto <tibble [8 × 6]>    202111… 202111…
    ## 10 Amsterdam Spectrum Spectrophotometer      <tibble [351 × 21]> 202111… 202111…
    ## # … with 160 more rows, and abbreviated variable names ¹​experiment_date,
    ## #   ²​experiment_id
…
Processed datasets can be accessed with:

``` r
targets::tar_load(data.experiments.processed)
# example to extract spectrophotometer OD
data.experiments.processed |> 
      dplyr::filter(data_id == "sp.od") |> 
      tidyr::unnest(data) |> 
      dplyr::select(-data_id)
```

    ## # A tibble: 1,904 × 8
    ##    location  strain induction bio_replicate experiment_d…¹ exper…² OD_730 time_h
    ##    <chr>     <chr>  <chr>             <dbl> <chr>          <chr>    <dbl>  <dbl>
    ##  1 Amsterdam EVC    -                     1 20211118       202111…  0.532      0
    ##  2 Amsterdam EVC    -                     1 20211118       202111…  0.501      2
    ##  3 Amsterdam EVC    -                     1 20211118       202111…  0.574      4
    ##  4 Amsterdam EVC    -                     1 20211118       202111…  0.584      5
    ##  5 Amsterdam EVC    -                     1 20211118       202111…  0.627      6
    ##  6 Amsterdam EVC    -                     1 20211118       202111…  0.658      7
    ##  7 Amsterdam EVC    -                     1 20211118       202111…  1.89      24
    ##  8 Amsterdam EVC    +                     1 20211118       202111…  0.532      0
    ##  9 Amsterdam EVC    +                     1 20211118       202111…  0.512      2
    ## 10 Amsterdam EVC    +                     1 20211118       202111…  0.542      4
    ## # … with 1,894 more rows, and abbreviated variable names ¹​experiment_date,
    ## #   ²​experiment_id
…
